%!PS-Adobe-3.0 EPSF-3.0
%%Creator: cairo 1.8.8 (http://cairographics.org)
%%CreationDate: Sat Nov  7 00:52:24 2020
%%Pages: 1
%%BoundingBox: 0 0 137 118
%%DocumentData: Clean7Bit
%%LanguageLevel: 2
%%EndComments
%%BeginProlog
/cairo_eps_state save def
/dict_count countdictstack def
/op_count count 1 sub def
userdict begin
/q { gsave } bind def
/Q { grestore } bind def
/cm { 6 array astore concat } bind def
/w { setlinewidth } bind def
/J { setlinecap } bind def
/j { setlinejoin } bind def
/M { setmiterlimit } bind def
/d { setdash } bind def
/m { moveto } bind def
/l { lineto } bind def
/c { curveto } bind def
/h { closepath } bind def
/re { exch dup neg 3 1 roll 5 3 roll moveto 0 rlineto
      0 exch rlineto 0 rlineto closepath } bind def
/S { stroke } bind def
/f { fill } bind def
/f* { eofill } bind def
/B { fill stroke } bind def
/B* { eofill stroke } bind def
/n { newpath } bind def
/W { clip } bind def
/W* { eoclip } bind def
/BT { } bind def
/ET { } bind def
/pdfmark where { pop globaldict /?pdfmark /exec load put }
    { globaldict begin /?pdfmark /pop load def /pdfmark
    /cleartomark load def end } ifelse
/BDC { mark 3 1 roll /BDC pdfmark } bind def
/EMC { mark /EMC pdfmark } bind def
/cairo_store_point { /cairo_point_y exch def /cairo_point_x exch def } def
/Tj { show currentpoint cairo_store_point } bind def
/TJ {
  {
    dup
    type /stringtype eq
    { show } { -0.001 mul 0 cairo_font_matrix dtransform rmoveto } ifelse
  } forall
  currentpoint cairo_store_point
} bind def
/cairo_selectfont { cairo_font_matrix aload pop pop pop 0 0 6 array astore
    cairo_font exch selectfont cairo_point_x cairo_point_y moveto } bind def
/Tf { pop /cairo_font exch def /cairo_font_matrix where
      { pop cairo_selectfont } if } bind def
/Td { matrix translate cairo_font_matrix matrix concatmatrix dup
      /cairo_font_matrix exch def dup 4 get exch 5 get cairo_store_point
      /cairo_font where { pop cairo_selectfont } if } bind def
/Tm { 2 copy 8 2 roll 6 array astore /cairo_font_matrix exch def
      cairo_store_point /cairo_font where { pop cairo_selectfont } if } bind def
/g { setgray } bind def
/rg { setrgbcolor } bind def
/d1 { setcachedevice } bind def
%%EndProlog
%%Page: 1 1
%%BeginPageSetup
%%PageBoundingBox: 0 0 137 118
%%EndPageSetup
q
0.333333 0.376471 0.501961 rg
40.16 22.83 m 7.617 11.982 l 7.617 89.728 l 40.16 100.576 l h
40.16 22.83 m f
0.27451 0.313726 0.4 rg
101.633 26.447 m 70.895 10.174 l 70.895 84.303 l 101.633 100.576 l h
101.633 26.447 m f
0.258824 0.290196 0.376471 rg
3.616 w
1 J
1 j
[] 0.0 d
10 M q 1 0 0 -1 0 117.724434 cm
7.617 12.629 m 7.617 18.055 l S Q
0.843137 0.352941 0.290196 rg
32.93 78.881 m 32.93 74.885 29.691 71.646 25.695 71.646 c 21.703 71.646 
18.465 74.885 18.465 78.881 c 18.465 82.873 21.703 86.111 25.695 86.111 
c 29.691 86.111 32.93 82.873 32.93 78.881 c h
32.93 78.881 m f
0.45098 0.513726 0.74902 rg
64.418 41.822 m 63.441 42.01 62.801 42.959 62.988 43.939 c 63.176 44.92 
64.125 45.564 65.105 45.369 c 67.129 44.978 69.02 44.822 70.895 44.888 
c 70.895 84.303 l 40.16 100.576 l 40.16 49.537 l 41.289 49.678 42.445 
49.767 43.629 49.795 c 43.668 49.795 l 44.648 49.795 45.453 49.01 
45.477 48.025 c 45.496 47.025 44.707 46.197 43.707 46.178 c 42.488 
46.154 41.305 46.056 40.16 45.896 c 40.16 22.83 l 70.895 10.174 l 
70.895 41.275 l 70.645 41.267 70.387 41.244 70.137 41.244 c 68.312 
41.244 66.391 41.439 64.418 41.822 c h
59.52 44.998 m 59.23 44.303 58.559 43.888 57.852 43.888 c 57.621 43.888 
57.383 43.931 57.156 44.025 c 56.508 44.295 56.047 44.513 55.805 44.631 
c 54.023 45.084 52.277 45.439 50.602 45.697 c 49.613 45.846 48.938 
46.771 49.086 47.76 c 49.234 48.744 50.16 49.428 51.148 49.271 c 52.996 
48.99 54.926 48.592 56.883 48.088 c 57.012 48.053 57.137 48.006 57.254 
47.947 c 57.285 47.931 57.75 47.697 58.551 47.365 c 59.469 46.978 
59.902 45.92 59.52 44.998 c h
59.52 44.998 m f
0.937255 0.807843 0.290196 rg
36.066 48.771 m 35.102 48.513 34.527 47.525 34.781 46.56 c 35 45.748 
35.73 45.213 36.531 45.213 c 36.68 45.213 36.84 45.232 36.996 45.275 c 
38.008 45.541 39.066 45.748 40.16 45.896 c 40.16 49.537 l 38.746 49.365 
37.375 49.115 36.066 48.771 c h
36.066 48.771 m f
28.961 45.717 m 26.777 44.349 24.809 42.635 23.109 40.619 c 22.469 
39.853 22.566 38.713 23.328 38.072 c 23.668 37.783 24.082 37.646 24.492 
37.646 c 25.008 37.646 25.516 37.865 25.875 38.287 c 27.332 40.017 
29.016 41.486 30.879 42.65 c 31.727 43.185 31.98 44.299 31.449 45.146 c 
30.922 45.99 29.805 46.248 28.961 45.717 c h
28.961 45.717 m f
21.406 34.986 m 20.496 35.404 19.426 35.01 19.008 34.103 c 17.152 30.08 
16.691 26.83 16.672 26.693 c 16.535 25.705 17.227 24.795 18.215 24.658 
c 18.301 24.646 18.383 24.642 18.465 24.642 c 19.355 24.642 20.129 
25.295 20.254 26.197 c 20.258 26.224 20.672 29.084 22.289 32.588 c 
22.707 33.494 22.312 34.568 21.406 34.986 c h
21.406 34.986 m f
0.686275 0.564706 0.227451 rg
92.715 77.217 m 92.695 78.217 91.828 78.978 90.875 78.994 c 89.875 
78.974 89.082 78.15 89.098 77.154 c 89.109 76.525 89.117 75.908 89.117 
75.303 c 89.117 73.498 89.062 71.736 88.957 70.072 c 88.895 69.076 
89.648 68.221 90.645 68.154 c 90.684 68.15 90.723 68.15 90.762 68.15 c 
91.707 68.15 92.504 68.885 92.566 69.846 c 92.676 71.58 92.734 73.42 
92.734 75.303 c 92.734 75.931 92.727 76.568 92.715 77.217 c h
92.715 77.217 m f
90.223 64.572 m 89.238 64.732 88.297 64.107 88.113 63.123 c 87.656 
60.685 87.039 58.459 86.27 56.502 c 85.906 55.572 86.367 54.525 87.293 
54.158 c 87.512 54.072 87.734 54.037 87.953 54.037 c 88.676 54.037 
89.359 54.471 89.637 55.185 c 90.488 57.353 91.168 59.803 91.668 62.459 
c 91.852 63.439 91.207 64.385 90.223 64.572 c h
90.223 64.572 m f
83.012 50.705 m 81.609 48.959 79.945 47.588 78.066 46.627 c 77.18 46.17 
76.828 45.084 77.281 44.193 c 77.602 43.568 78.234 43.209 78.895 43.209 
c 79.168 43.209 79.453 43.271 79.715 43.404 c 82.051 44.599 84.109 
46.295 85.832 48.439 c 86.457 49.221 86.332 50.361 85.555 50.982 c 
84.777 51.603 83.641 51.486 83.012 50.705 c h
83.012 50.705 m f
71.82 44.928 m 71.516 44.904 71.207 44.9 70.895 44.888 c 70.895 41.275 
l 71.297 41.287 71.695 41.291 72.102 41.322 c 73.098 41.4 73.84 42.267 
73.762 43.263 c 73.688 44.26 72.812 45.017 71.82 44.928 c h
71.82 44.928 m f
0.976471 0.933333 0.168627 rg
58.547 47.361 m 57.75 47.697 57.285 47.928 57.254 47.943 c 57.137 
48.002 57.012 48.053 56.883 48.084 c 54.926 48.588 52.996 48.986 51.145 
49.267 c 50.16 49.424 49.234 48.74 49.086 47.756 c 48.934 46.767 49.613 
45.842 50.598 45.693 c 52.273 45.435 54.023 45.08 55.801 44.627 c 
56.043 44.51 56.508 44.291 57.152 44.021 c 57.383 43.928 57.617 43.885 
57.848 43.885 c 58.555 43.885 59.23 44.299 59.52 44.994 c 59.902 45.92 
59.469 46.978 58.547 47.361 c h
58.547 47.361 m f
65.109 45.369 m 64.125 45.564 63.18 44.92 62.988 43.939 c 62.801 42.959 
63.441 42.01 64.422 41.822 c 66.391 41.439 68.312 41.244 70.137 41.244 
c 70.387 41.244 70.645 41.267 70.895 41.275 c 70.895 44.888 l 69.02 
44.822 67.129 44.978 65.109 45.369 c h
65.109 45.369 m f
45.477 48.025 m 45.453 49.01 44.648 49.795 43.668 49.795 c 43.629 
49.795 l 42.445 49.771 41.289 49.678 40.16 49.541 c 40.16 45.9 l 41.305 
46.056 42.488 46.154 43.707 46.178 c 44.707 46.201 45.496 47.025 45.477 
48.025 c h
45.477 48.025 m f
0.258824 0.290196 0.376471 rg
q 1 0 0 -1 0 117.724434 cm
4 11.727 m 11.23 18.957 l S Q
q 1 0 0 -1 0 117.724434 cm
4 18.957 m 11.23 11.727 l S Q
0.984314 0.580392 0.364706 rg
130.055 81.396 m 130.055 81.396 123.219 86.541 117.613 58.373 c 117.613 
58.373 136.512 77.756 130.055 81.396 c h
130.055 81.396 m f
0.807843 0.145098 0.145098 rg
118.043 93.006 m 137.051 51.26 l 109.914 75.728 l h
118.043 93.006 m f
0.984314 0.580392 0.364706 rg
81.875 108.881 m 81.875 108.881 89.785 105.611 68.391 86.451 c 68.391 
86.451 75.457 112.58 81.875 108.881 c h
81.875 108.881 m f
0.807843 0.145098 0.145098 rg
97.98 104.447 m 52.375 99.556 l 87.25 88.654 l h
97.98 104.447 m f
0.980392 0.835294 0.698039 rg
96.547 51.482 m 92.52 58.146 l 100.305 62.31 l 119.312 102.021 l 
124.344 113.498 119.355 116.982 118.719 117.092 c 118.301 117.584 
112.762 120.103 105.445 109.928 c 80.941 73.357 l 81.316 64.537 l 
73.531 64.607 l 72.105 57.744 l 82.414 56.533 l 112.578 109.416 l 
114.922 108.076 l 84.781 55.232 l 91.121 46.896 l 96.547 51.482 l h
96.547 51.482 m f
0.807843 0.145098 0.145098 rg
117.902 102.037 m 117.445 101.24 116.824 106.388 113.516 108.275 c 
110.207 110.162 105.461 108.076 105.918 108.873 c 106.371 109.67 
111.852 113.049 115.164 111.158 c 118.473 109.271 118.355 102.834 
117.902 102.037 c h
117.902 102.037 m f
0.94902 0.94902 0.960784 rg
101.543 27.967 m 101.543 18.068 93.52 10.049 83.625 10.049 c 73.727 
10.049 65.703 18.068 65.703 27.967 c 65.703 37.865 73.727 45.888 83.625 
45.888 c 93.52 45.888 101.543 37.865 101.543 27.967 c h
101.543 27.967 m f
0.180392 0.145098 0.231373 rg
97.496 16.627 m 96.738 15.701 95.891 14.853 94.961 14.096 c 109.059 
0.002 l 111.59 2.533 l 97.496 16.627 l h
97.496 16.627 m f
0.929412 0.933333 0.952941 rg
67.938 18.244 m 68.691 16.971 69.594 15.76 70.691 14.662 c 71.34 14.013 
72.035 13.447 72.75 12.92 c 97.777 37.947 l 97.246 38.662 96.68 39.357 
96.031 40.006 c 94.938 41.099 93.727 42.006 92.449 42.756 c 67.938 
18.244 l h
67.938 18.244 m f
0.180392 0.145098 0.231373 rg
83.625 9.15 m 73.25 9.15 64.809 17.592 64.809 27.967 c 64.809 38.342 
73.25 46.783 83.625 46.783 c 94 46.783 102.441 38.342 102.441 27.967 c 
102.441 17.592 94 9.15 83.625 9.15 c h
83.625 44.99 m 74.238 44.99 66.602 37.353 66.602 27.967 c 66.602 18.58 
74.238 10.943 83.625 10.943 c 93.012 10.943 100.648 18.58 100.648 
27.967 c 100.648 37.353 93.012 44.99 83.625 44.99 c h
83.625 44.99 m f
0 g
44.52 31.998 m 42.176 35.834 39.023 38.916 35.062 41.244 c 31.102 
43.572 26.918 44.736 22.512 44.736 c 18.105 44.736 13.922 43.572 9.961 
41.244 c 6 38.916 2.848 35.834 0.504 31.998 c 0.168 31.412 0 30.834 0 
30.263 c 0 29.693 0.168 29.115 0.504 28.529 c 2.848 24.693 6 21.611 
9.961 19.283 c 13.922 16.955 18.105 15.791 22.512 15.791 c 26.918 
15.791 31.102 16.951 35.062 19.271 c 39.023 21.592 42.176 24.678 44.52 
28.529 c 44.855 29.115 45.023 29.693 45.023 30.263 c 45.023 30.834 
44.855 31.412 44.52 31.998 c h
17.121 38.869 m 18.621 40.369 20.418 41.115 22.512 41.115 c 22.848 
41.115 23.133 40.998 23.367 40.763 c 23.602 40.529 23.719 40.244 23.719 
39.912 c 23.719 39.576 23.602 39.291 23.367 39.056 c 23.133 38.822 
22.848 38.705 22.512 38.705 c 21.07 38.705 19.84 38.193 18.82 37.174 c 
17.797 36.15 17.285 34.92 17.285 33.478 c 17.285 33.142 17.168 32.857 
16.934 32.623 c 16.699 32.388 16.414 32.271 16.078 32.271 c 15.746 
32.271 15.461 32.388 15.227 32.623 c 14.992 32.857 14.875 33.142 14.875 
33.478 c 14.875 35.572 15.625 37.369 17.121 38.869 c h
33.43 22.06 m 30.07 20.025 26.43 19.006 22.512 19.006 c 18.594 19.006 
14.953 20.025 11.594 22.06 c 8.238 24.096 5.445 26.83 3.215 30.263 c 
5.762 34.217 8.953 37.174 12.789 39.131 c 11.766 37.388 11.254 35.506 
11.254 33.478 c 11.254 30.381 12.355 27.728 14.559 25.525 c 16.762 
23.326 19.414 22.224 22.512 22.224 c 25.609 22.224 28.262 23.326 30.465 
25.525 c 32.668 27.728 33.766 30.381 33.766 33.478 c 33.766 35.506 
33.258 37.388 32.234 39.131 c 36.07 37.174 39.262 34.217 41.809 30.263 
c 39.578 26.83 36.785 24.096 33.43 22.06 c h
33.43 22.06 m f
Q
showpage
%%Trailer
count op_count sub {pop} repeat
countdictstack dict_count sub {end} repeat
cairo_eps_state restore
%%EOF
